%YAML 1.1
%TAG !u! tag:unity3d.com,2011:
--- !u!114 &11400000
MonoBehaviour:
  m_ObjectHideFlags: 0
  m_CorrespondingSourceObject: {fileID: 0}
  m_PrefabInstance: {fileID: 0}
  m_PrefabAsset: {fileID: 0}
  m_GameObject: {fileID: 0}
  m_Enabled: 1
  m_EditorHideFlags: 0
  m_Script: {fileID: 11500000, guid: 6b63982853aec1e4b8f2e9685776012c, type: 3}
  m_Name: Dialog11
  m_EditorClassIdentifier: 
  speaker: 5
  text: "Ah! Paolo? Como eu n\xE3o pensei nisso, ele nunca gostou de mim!"
  options:
  - name: Continue
    triggeredDialog: {fileID: 0}
