%YAML 1.1
%TAG !u! tag:unity3d.com,2011:
--- !u!114 &11400000
MonoBehaviour:
  m_ObjectHideFlags: 0
  m_CorrespondingSourceObject: {fileID: 0}
  m_PrefabInstance: {fileID: 0}
  m_PrefabAsset: {fileID: 0}
  m_GameObject: {fileID: 0}
  m_Enabled: 1
  m_EditorHideFlags: 0
  m_Script: {fileID: 11500000, guid: 6b63982853aec1e4b8f2e9685776012c, type: 3}
  m_Name: Dialog3
  m_EditorClassIdentifier: 
  speaker: 1
  text: 'Eita! Acho que cheguei em uma hora ruim, mas preciso fazer algumas perguntas. '
  options:
  - name: Continue
    triggeredDialog: {fileID: 11400000, guid: 8a24c31d957886a47815c949cbe6ac1b, type: 2}
