%YAML 1.1
%TAG !u! tag:unity3d.com,2011:
--- !u!114 &11400000
MonoBehaviour:
  m_ObjectHideFlags: 0
  m_CorrespondingSourceObject: {fileID: 0}
  m_PrefabInstance: {fileID: 0}
  m_PrefabAsset: {fileID: 0}
  m_GameObject: {fileID: 0}
  m_Enabled: 1
  m_EditorHideFlags: 0
  m_Script: {fileID: 11500000, guid: 6b63982853aec1e4b8f2e9685776012c, type: 3}
  m_Name: Dialog20
  m_EditorClassIdentifier: 
  speaker: 1
  text: Bom, mas precisava gritar? Eu acredito que a rua toda escutou.
  options:
  - name: Continue
    triggeredDialog: {fileID: 11400000, guid: d657921689ddd1a4c946ad19cbd20602, type: 2}
